…
``` r
tidy_dataset <- data %>% 
  gather(measurement, value, -c(activity, subject)) %>% 
  extract(measurement, c("variable"), "(std[(][)]|mean[(][)])", remove = FALSE) %>% 
  mutate(variable = sub("[(][)]","", variable), measurement = sub("-", "_",sub("-mean[(][)]","", sub("-std[(][)]","", measurement)))) %>% 
  group_by(activity, subject, measurement, variable) %>% 
  summarise(mean_value = mean(value))  %>% 
  ungroup() %>% 
  spread(measurement, mean_value) 

tidy_dataset
```

    ## # A tibble: 360 x 36
    ##    activity subject variable fBodyAcc_X fBodyAcc_Y fBodyAcc_Z fBodyAccJerk_X
    ##    <fct>      <int> <chr>         <dbl>      <dbl>      <dbl>          <dbl>
    ##  1 LAYING         1 mean         -0.939     -0.867     -0.883         -0.957
    ##  2 LAYING         1 std          -0.924     -0.834     -0.813         -0.964
    ##  3 LAYING         2 mean         -0.977     -0.980     -0.984         -0.986
    ##  4 LAYING         2 std          -0.973     -0.981     -0.985         -0.987
    ##  5 LAYING         3 mean         -0.981     -0.961     -0.968         -0.981
    ##  6 LAYING         3 std          -0.984     -0.964     -0.963         -0.983
    ##  7 LAYING         4 mean         -0.959     -0.939     -0.968         -0.979
    ##  8 LAYING         4 std          -0.952     -0.946     -0.962         -0.980
    ##  9 LAYING         5 mean         -0.969     -0.965     -0.977         -0.983
    ## 10 LAYING         5 std          -0.965     -0.973     -0.966         -0.986
    ## # … with 350 more rows, and 29 more variables: fBodyAccJerk_Y <dbl>,
    ## #   fBodyAccJerk_Z <dbl>, fBodyAccMag <dbl>, fBodyBodyAccJerkMag <dbl>,
    ## #   fBodyBodyGyroJerkMag <dbl>, fBodyBodyGyroMag <dbl>, fBodyGyro_X <dbl>,
    ## #   fBodyGyro_Y <dbl>, fBodyGyro_Z <dbl>, tBodyAcc_X <dbl>, tBodyAcc_Y <dbl>,
    ## #   tBodyAcc_Z <dbl>, tBodyAccJerk_X <dbl>, tBodyAccJerk_Y <dbl>,
    ## #   tBodyAccJerk_Z <dbl>, tBodyAccJerkMag <dbl>, tBodyAccMag <dbl>,
    ## #   tBodyGyro_X <dbl>, tBodyGyro_Y <dbl>, tBodyGyro_Z <dbl>,
    ## #   tBodyGyroJerk_X <dbl>, tBodyGyroJerk_Y <dbl>, tBodyGyroJerk_Z <dbl>,
    ## #   tBodyGyroJerkMag <dbl>, tBodyGyroMag <dbl>, tGravityAcc_X <dbl>,
…
